Lab 8: Machine Learning Tuning – Lab #6: Machine Learning in Hydrology
…
Mid-range values (e.g., -1.5 to -1) seem to give the best performance overall.

Tree Depth:

There’s a clear spike in error around 9+ for MAE and RMSE.

Lower tree depths seem to consistently perform better, especially when paired with a good learning rate.

Check the skill of the tuned model

Collect metrics:

collect_metrics(model_params)

# A tibble: 75 × 9
   trees tree_depth learn_rate .metric .estimator   mean     n std_err .config  
   <int>      <int>      <dbl> <chr>   <chr>       <dbl> <int>   <dbl> <chr>    
 1   842          1     0.0691 mae     standard   0.105     10 0.00358 Preproce…
 2   842          1     0.0691 rmse    standard   0.191     10 0.0120  Preproce…
 3   842          1     0.0691 rsq     standard   0.988     10 0.00120 Preproce…
 4   774          2     0.0143 mae     standard   0.0922    10 0.00267 Preproce…
 5   774          2     0.0143 rmse    standard   0.162     10 0.00720 Preproce…
 6   774          2     0.0143 rsq     standard   0.990     10 0.00164 Preproce…
 7   282          2     0.164  mae     standard   0.0987    10 0.00352 Preproce…
 8   282          2     0.164  rmse    standard   0.161     10 0.00699 Preproce…
 9   282          2     0.164  rsq     standard   0.990     10 0.00142 Preproce…
10  1220          3     0.0178 mae     standard   0.0865    10 0.00347 Preproce…
# ℹ 65 more rows
…
Building a Map

Use fit

final_fit <- fit(final_wf, data = camels_clean)

Use augment

final_aug <- augment(final_fit, new_data = camels_clean)

print(final_aug)

# A tibble: 670 × 59
   .pred gauge_id gauge_lat gauge_lon p_mean pet_mean p_seasonality frac_snow
   <dbl> <chr>        <dbl>     <dbl>  <dbl>    <dbl>         <dbl>     <dbl>
 1  1.71 01013500      47.2     -68.6   3.13     1.97        0.188      0.313
 2  2.16 01022500      44.6     -67.9   3.61     2.12       -0.115      0.245
 3  1.82 01030500      45.5     -68.3   3.27     2.04        0.0474     0.277
 4  2.04 01031500      45.2     -69.3   3.52     2.07        0.104      0.292
 5  2.18 01047000      44.9     -70.0   3.32     2.09        0.148      0.280
 6  2.41 01052500      44.9     -71.1   3.73     2.10        0.152      0.353
 7  2.75 01054200      44.4     -71.0   4.07     2.13        0.105      0.300
 8  2.26 01055000      44.6     -70.6   3.49     2.09        0.167      0.306
 9  1.82 01057000      44.3     -70.5   3.57     2.13        0.0791     0.251
10  1.71 01073000      43.1     -71.0   3.50     2.21        0.0304     0.175
# ℹ 660 more rows
# ℹ 51 more variables: aridity <dbl>, high_prec_freq <dbl>,
#   high_prec_dur <dbl>, high_prec_timing <chr>, low_prec_freq <dbl>,
#   low_prec_dur <dbl>, low_prec_timing <chr>, geol_1st_class <chr>,
#   glim_1st_class_frac <dbl>, geol_2nd_class <chr>, glim_2nd_class_frac <dbl>,
#   carbonate_rocks_frac <dbl>, geol_porostiy <dbl>, geol_permeability <dbl>,
#   soil_depth_pelletier <dbl>, soil_depth_statsgo <dbl>, …
…
